Summarizing & ggplot2 Plotting
…
Task 2: Summarize the Data (Very Basic EDA)

We’ve talked about the general process of conducting an EDA. You try to understand how your data is stored, what is missing, and you try to summarize the variables both numerically and visually to understand relationships within the data.

Do the rest of these items on the combined data:

Look at how the data is stored and see if everything makes sense.

print(school_data)

# A tibble: 320 × 38
   school sex     age address famsize Pstatus   Medu  Fedu Mjob     Fjob  reason
   <chr>  <chr> <dbl> <fct>   <chr>   <fct>    <dbl> <dbl> <chr>    <chr> <chr> 
 1 GP     F        18 Urban   GT3     Apart        4     4 at_home  teac… course
 2 GP     F        17 Urban   GT3     Together     1     1 at_home  other course
 3 GP     F        15 Urban   GT3     Together     4     2 health   serv… home  
 4 GP     F        16 Urban   GT3     Together     3     3 other    other home  
 5 GP     M        16 Urban   LE3     Together     4     3 services other reput…
 6 GP     M        16 Urban   LE3     Together     2     2 other    other home  
 7 GP     F        17 Urban   GT3     Apart        4     4 other    teac… home  
 8 GP     M        15 Urban   LE3     Apart        3     2 services other home  
 9 GP     M        15 Urban   GT3     Together     3     4 other    other home  
10 GP     F        15 Urban   GT3     Together     4     4 teacher  heal… reput…
# ℹ 310 more rows
# ℹ 27 more variables: guardian <chr>, traveltime <dbl>, studytime <dbl>,
#   failures <dbl>, schoolsup <chr>, famsup <chr>, paid.x <chr>,
#   activities <fct>, nursery <chr>, higher <fct>, internet <chr>,
#   romantic <chr>, famrel <dbl>, freetime <dbl>, goout <dbl>, Dalc <dbl>,
#   Walc <dbl>, health <dbl>, absences.x <dbl>, G1.x <dbl>, G2.x <dbl>,
#   G3.x <dbl>, paid.y <chr>, absences.y <dbl>, G1.y <dbl>, G2.y <dbl>, …
…
